[{
  "id": 1,
  "fecha": "4/16/2020",
  "importe": 20,
  "latitud": 31.918232,
  "longitud": 119.976948,
  "ciudad": "Baizhang"
}, {
  "id": 2,
  "fecha": "9/30/2019",
  "importe": 27,
  "latitud": 35.319084,
  "longitud": 114.540858,
  "ciudad": "Jiaohu"
}, {
  "id": 3,
  "fecha": "10/2/2019",
  "importe": 60,
  "latitud": 12.6400252,
  "longitud": 10.7048554,
  "ciudad": "Gorgoram"
}, {
  "id": 4,
  "fecha": "9/24/2019",
  "importe": 24,
  "latitud": 25.0645253,
  "longitud": 91.7228043,
  "ciudad": "Chhātak"
}, {
  "id": 5,
  "fecha": "10/18/2019",
  "importe": 85,
  "latitud": 25.60162,
  "longitud": 103.817356,
  "ciudad": "Litian"
}, {
  "id": 6,
  "fecha": "8/2/2019",
  "importe": 99,
  "latitud": 59.4304876,
  "longitud": 18.0591041,
  "ciudad": "Täby"
}, {
  "id": 7,
  "fecha": "3/28/2020",
  "importe": 61,
  "latitud": 29.344616,
  "longitud": 102.652483,
  "ciudad": "Hanyuan"
}, {
  "id": 8,
  "fecha": "11/16/2019",
  "importe": 37,
  "latitud": 55.8697739,
  "longitud": 48.5236711,
  "ciudad": "Zelenodolsk"
}, {
  "id": 9,
  "fecha": "1/21/2020",
  "importe": 46,
  "latitud": -27.9094431,
  "longitud": -53.3122927,
  "ciudad": "Palmeira das Missões"
}, {
  "id": 10,
  "fecha": "11/26/2019",
  "importe": 8,
  "latitud": -8.1611036,
  "longitud": 113.6770012,
  "ciudad": "Kebonagung"
}]
